Chapter 3 Parsing data | Harvesting Rental Data and Assessing Rental Crisis in Sydney
…
## Warning: Values are not uniquely identified; output will contain list-cols.
## * Use `values_fn = list` to suppress this warning.
## * Use `values_fn = length` to identify where the duplicates arise
## * Use `values_fn = {summary_fun}` to summarise duplicates

## Warning: `cols` is now required when using unnest().
## Please use `cols = c(Mar19, Jun19, Sep19, Dec19, Mar20, Jun20, Sep20, Dec20, Mar21, 
##     Jun21, sep21, dec21, Mar22, Jun22, Sep22, Dec22, Mar23, Jun23, 
##     Sep23)`

## # A tibble: 2,241 x 22
##    postcode dwt     beds   Mar19 Jun19 Sep19 Dec19 Mar20 Jun20 Sep20 Dec20 Mar21
##       <dbl> <chr>   <chr>  <dbl> <dbl> <dbl> <dbl> <dbl> <dbl> <dbl> <dbl> <dbl>
##  1     2000 House   2 Bed~   850    NA    NA    NA    NA    NA   700   670   725
##  2     2000 Other   1 Bed~   575   605   605   589   619   589   499   499   504
##  3     2000 Other   2 Bed~   850    NA   950    NA    NA    NA   715   575    NA
##  4     2000 Flat/U~ 1 Bed~   660   670   650   650   660   525   500   490   550
##  5     2000 Flat/U~ 2 Bed~   940   915   900   880   935   750   705   670   750
##  6     2000 Flat/U~ 3 Bed~  1300  1380  1275  1400  1475  1025   970   905  1000
##  7     2007 Other   1 Bed~   419   345   409   395   395    NA   485   485   243
##  8     2007 Flat/U~ 1 Bed~   550   560   510   555   550   450   450   420   450
##  9     2007 Flat/U~ 2 Bed~   750   780   670   890   778   600   600   565   560
## 10     2008 House   2 Bed~   730   730   710    NA    NA   680   610   615   700
## # ... with 2,231 more rows, and 10 more variables: Jun21 <dbl>, sep21 <dbl>,
## #   dec21 <dbl>, Mar22 <dbl>, Jun22 <dbl>, Sep22 <dbl>, Dec22 <dbl>,
## #   Mar23 <dbl>, Jun23 <dbl>, Sep23 <dbl>
